module codeberg.org/dancheg97/tglog

go 1.21.4

require (
	github.com/go-telegram-bot-api/telegram-bot-api/v5 v5.5.1
	github.com/sirupsen/logrus v1.9.3
)

require golang.org/x/sys v0.0.0-20220715151400-c0bba94af5f8 // indirect
